{
   "additions":[
      {
         "kind":"dns#resourceRecordSet",
         "name":"example.com.",
         "rrdatas":[
            "93.184.216.119"
         ],
         "ttl":21600,
         "type":"A"
      },
      {
         "kind":"dns#resourceRecordSet",
         "name":"example.com.",
         "rrdatas":[
            "10 aspmx.l.google.com"
         ],
         "ttl":21600,
         "type":"MX"
      },
      {
         "kind":"dns#resourceRecordSet",
         "name":"www.example.com.",
         "rrdatas":[
            "example.com."
         ],
         "ttl":21600,
         "type":"CNAME"
      }
   ]
}